%YAML 1.1
%TAG !u! tag:unity3d.com,2011:
--- !u!134 &13400000
PhysicMaterial:
  m_ObjectHideFlags: 0
  m_PrefabParentObject: {fileID: 0}
  m_PrefabInternal: {fileID: 0}
  m_Name: Slippery
  dynamicFriction: 0.05
  staticFriction: 0.05
  bounciness: 0.25
  frictionCombine: 1
  bounceCombine: 0
